myhdl/enet.vcd
$version the best vcd in the universe $end
$timescale 1ps $end
$scope module debug_core $end
$var reg 1 0 bit0 $end
$var reg 1 1 bit1 $end
$var reg 1 2 bit2 $end
$var reg 1 3 bit3 $end
$var reg 1 4 bit4 $end
$var reg 1 5 bit5 $end
$var reg 1 6 bit6 $end
$var reg 1 7 bit7 $end
$var reg 1 8 bit8 $end
$var reg 1 9 bit9 $end
$var reg 1 a bit10 $end
$var reg 1 b bit11 $end
$var reg 1 c bit12 $end
$var reg 1 d bit13 $end
$var reg 1 e bit14 $end
$var reg 1 f bit15 $end
$upscope $end
$enddefinitions $end
$dumpvars
10
11
02
13
04
15
06
17
18
09
0a
0b
0c
0d
0e
0f
#1
12
14
16
#2
#3
#4
#5
#6
#7
01
02
03
04
05
06
07
08
#8
13
#9
11
12
03
14
17
#10
02
13
04
16
18
#11
01
03
06
08
#12
11
12
13
15
16
#13
01
02
03
14
05
06
07
#14
04
#15
11
13
17
#16
01
03
15
07
#17
11
05
#18
01
14
17
#19
04
07
#20
#21
#22
#23
18
#24
11
15
08
#25
14
16
#26
01
12
13
04
06
18
#27
02
03
05
08
#28
#29
#30
#31
11
12
13
14
15
16
17
18
#32
#33
#34
#35
01
02
03
04
05
06
07
08
#36
13
17
#37
03
07
#38
11
12
17
#39
02
07
#40
01
13
15
16
#41
12
14
05
17
#42
04
06
07
#43
11
02
03
#44
#45
01
12
13
#46
02
03
#47
12
15
17
#48
11
14
#49
05
07
#50
01
02
13
04
#51
03
#52
13
15
#53
03
05
#54
#55
#56
#57
#58
#59
#60
#61
#62
#63
#64
#65
#66
#67
#68
#69
#70
#71
#72
13
#73
11
12
03
14
17
#74
02
13
04
16
18
#75
01
03
06
08
#76
11
12
13
15
16
#77
01
02
03
05
06
07
