myhdl/enet.vcd
$version the best vcd in the universe $end
$timescale 1ps $end
$scope module debug_core $end
$var reg 1 0 bit0 $end
$var reg 1 1 bit1 $end
$var reg 1 2 bit2 $end
$var reg 1 3 bit3 $end
$var reg 1 4 bit4 $end
$var reg 1 5 bit5 $end
$var reg 1 6 bit6 $end
$var reg 1 7 bit7 $end
$var reg 1 8 bit8 $end
$var reg 1 9 bit9 $end
$var reg 1 a bit10 $end
$var reg 1 b bit11 $end
$var reg 1 c bit12 $end
$var reg 1 d bit13 $end
$var reg 1 e bit14 $end
$var reg 1 f bit15 $end
$upscope $end
$enddefinitions $end
$dumpvars
10
11
02
13
04
15
06
17
18
09
0a
0b
0c
0d
0e
0f
#1
12
14
16
#2
#3
#4
#5
#6
#7
01
02
03
04
05
06
07
08
#8
13
#9
11
12
03
14
17
#10
02
13
04
16
18
#11
01
03
06
08
#12
11
12
13
15
16
#13
01
02
03
14
05
06
07
#14
12
13
04
#15
02
03
#16
11
#17
01
14
#18
04
#19
12
13
#20
02
#21
03
#22
11
#23
01
#24
13
#25
11
12
03
14
17
#26
02
13
04
16
18
#27
01
03
06
08
#28
11
12
13
15
16
#29
01
02
14
05
07
18
#30
11
04
15
06
08
#31
01
12
03
14
05
#32
13
#33
02
03
04
#34
#35
#36
#37
#38
#39
13
14
16
18
#40
11
04
15
06
08
#41
01
12
03
14
05
#42
11
02
13
#43
01
03
04
#44
#45
#46
#47
#48
#49
#50
#51
#52
#53
#54
#55
#56
#57
#58
#59
#60
#61
14
16
17
#62
11
12
13
15
07
#63
04
06
18
#64
02
03
14
16
08
#65
00
01
04
05
06
